[
	{
		"id": 3,
		"name": "Group_1",
		"layerFrame": {
			"x": 0,
			"y": 0,
			"width": 300,
			"height": 300
		},
		"maskFrame": null,
		"image": {
			"path": "images/Group_1.png",
			"frame": {
				"x": 0,
				"y": 0,
				"width": 300,
				"height": 300
			}
		},
		"imageType": "png",
		"children": [
			
		],
		"modification": "1251075934"
	}
]