[
	{
		"id": 3,
		"name": "Group_1",
		"layerFrame": {
			"x": 0,
			"y": 0,
			"width": 417,
			"height": 416
		},
		"maskFrame": null,
		"image": {
			"path": "images/Group_1.png",
			"frame": {
				"x": 0,
				"y": 0,
				"width": 417,
				"height": 416
			}
		},
		"imageType": "png",
		"children": [
			
		],
		"modification": "863739395"
	}
]