[
	{
		"id": 4,
		"name": "Group_1",
		"layerFrame": {
			"x": 0,
			"y": 0,
			"width": 186,
			"height": 187
		},
		"maskFrame": null,
		"image": {
			"path": "images/Group_1.png",
			"frame": {
				"x": 0,
				"y": 0,
				"width": 186,
				"height": 187
			}
		},
		"imageType": "png",
		"children": [
			
		],
		"modification": "1376200749"
	}
]